cqa,best_q_prec,best_q_fmeasure,best_q_rec
trip_location,1.0,1.0,1.0
reviewers_all,1.0,1.0,1.0
person_name,0.0,0.0,0.0
workshop,1.0,1.0,1.0
topic,1.0,1.0,1.0
conference_topic,1.0,1.0,1.0
gala_dinner_location,1.0,1.0,1.0
person,1.0,1.0,1.0
gala_dinner,1.0,1.0,1.0
trip,1.0,1.0,1.0
paper,1.0,1.0,1.0
paper_title,1.0,1.0,1.0
paper_presentation,0.9477693144722524,0.9731843575418995,1.0
accepted_paper,1.0,1.0,1.0
rejected_paper,1.0,1.0,1.0
author,1.0,1.0,1.0
topic_of_paper,1.0,1.0,1.0
review,1.0,1.0,1.0
university,1.0,1.0,1.0
is_author_of_paper,1.0,1.0,1.0
conference_name,0.0,0.0,0.0
presentation_in_conference,0.9699331848552338,0.9847371396269078,1.0
presentation_of_paper,0.9477693144722524,0.9731843575418995,1.0
oc_member,0.0,0.0,0.0
conference,1.0,1.0,1.0
participant,0.9370212765957446,0.9674868189806678,1.0
all_reviewer_author_of_review,1.0,1.0,1.0
global mean,0.8815738181627957,0.8851330619885694,0.8888888888888888

